login
password: F;3Bk;RJAl~W

Generating public/private rsa key pair.
Enter passphrase (empty for no passphrase): 
Enter same passphrase again: 
Your identification has been saved in /home/miadooto/.ssh/login.
Your public key has been saved in /home/miadooto/.ssh/login.pub.
The key fingerprint is:
5a:92:27:6e:93:48:cc:b1:44:7a:24:8e:fe:0a:47:57 
The key's randomart image is:
+--[ RSA 2048]----+
|  . o            |
| o =             |
|. o + E          |
|.  = + .         |
| .. * + S        |
| ..o o B         |
|. ... *          |
|...  . .         |
| .               |
+-----------------+